Case_Study1
…
is average length of stay related to neighborhood? price?

nyc_airbnb = 
nyc_airbnb %>%
  mutate (
    stars = review_scores_location / 2,
    borough = neighbourhood_group
  )

nyc_airbnb %>% 
  mutate (neighbourhood = as.factor (neighbourhood)) %>% 
  filter (borough == "Manhattan") %>% 
  mutate (neighbourhood = fct_reorder (neighbourhood, price))

## # A tibble: 19,212 x 19
##        id review_scores_l name  host_id host_name neighbourhood_g
##     <dbl>            <dbl> <chr>   <dbl> <chr>     <chr>           
##  1 1.62e6               NA <NA>   6.68e6 Peter     Manhattan       
##  2 9.94e6               NA Lowe  5.11e7 Dax       Manhattan       
##  3 1.20e7               NA Nice  9.75e6 Capital   Manhattan       
##  4 3.16e5               NA Fami  1.54e6 Carole    Manhattan       
##  5 5.64e6               10 Beau  1.70e7 Michelle  Manhattan       
##  6 3.80e6                9 Stat  1.96e7 Silvia    Manhattan       
##  7 1.77e7               NA Cozy  8.18e6 Fredrik   Manhattan       
##  8 9.04e5               NA Stud  4.83e6 Alex      Manhattan       
##  9 1.71e6               NA Batt  9.03e6 Rachel    Manhattan       
## 10 9.97e6               NA Luxu  6.17e6 Sanjay    Manhattan       
## #  with 19,202 more rows, and 13 more variables: neighbourhood <fct>,
## #   lat <dbl>, long <dbl>, room_type <chr>, price <dbl>,
## #   minimum_nights <dbl>, number_of_reviews <dbl>, last_review <date>,
## #   reviews_per_month <dbl>, calculated_host_listings_count <dbl>,
## #   availability_365 <dbl>, stars <dbl>, borough <chr>
…
nyc_airbnb %>% 
  count (neighbourhood)

## # A tibble: 217 x 2
##    neighbourhood                  n
##    <chr>                      <int>
##  1 Allerton                      23
##  2 Arden Heights                  6
##  3 Arrochar                      14
##  4 Arverne                       71
##  5 Astoria                      755
##  6 Bath Beach                    11
##  7 Battery Park City             65
##  8 Bay Ridge                     91
##  9 Bay Terrace                    5
## 10 Bay Terrace, Staten Island     1
## #  with 207 more rows
…
